Single Cell Genomics 2016 (#SCGen16)
…
Even though I asked for 1000 tweets, it turns out as of September 21 2016, there were only 586 tweets (for the entire conference). Im not sure why, but that seems like so few to me compared to some of the other conferences that I have recently attended.

Next, I transformed there scrapped data into a data frame and removed the duplicated retweets.

scgen16_tweets <- bind_rows(lapply(scgen16, as.data.frame)) # Transform into a data frame 
scgen16_non_retweets <- scgen16_tweets %>% filter(!isRetweet) # Filter out retweets

Who tweeted the most?

scgen16_non_retweets %>%
    count(screenName, sort = TRUE)

## # A tibble: 35 x 2
##        screenName     n
##             <chr> <int>
## 1          nawy_t   191
## 2   GenomeBiology    71
## 3       davisjmcc    35
## 4     asharmaiisc    15
## 5      ACSCevents     5
## 6         CGATist     5
## 7  stephaniehicks     5
## 8         galicae     4
## 9         vallens     4
## 10    Bird_leahry     3
## # ... with 25 more rows
…
